generated/ALU/ALU.ALUGen2066323605/ALU.vcd
$version Generated by VerilatedVcd $end
$date Tue Oct  5 02:36:36 2021 $end
$timescale 1ps $end

 $scope module TOP $end
  $var wire  1 m clock $end
  $var wire  4 q io_ALU_op [3:0] $end
  $var wire 32 r io_ALU_out [31:0] $end
  $var wire 32 o io_A_in [31:0] $end
  $var wire 32 p io_B_in [31:0] $end
  $var wire  1 t io_Less $end
  $var wire  1 u io_Overflow_out $end
  $var wire  1 s io_Zero $end
  $var wire  1 n reset $end
  $scope module ALU $end
   $var wire 32 ) A_in_not [31:0] $end
   $var wire 32 o adder_io_A_in [31:0] $end
   $var wire 32 p adder_io_B_in [31:0] $end
   $var wire 32 ' adder_io_O_out [31:0] $end
   $var wire  1 $ adder_io_carry $end
   $var wire  1 v adder_io_cin $end
   $var wire  1 & adder_io_negative $end
   $var wire  1 % adder_io_overflow $end
   $var wire  1 # adder_io_zero $end
   $var wire  1 m clock $end
   $var wire  6 i count_0 [5:0] $end
   $var wire  6 h count_1 [5:0] $end
   $var wire  6 _ count_10 [5:0] $end
   $var wire  6 ^ count_11 [5:0] $end
   $var wire  6 ] count_12 [5:0] $end
   $var wire  6 \ count_13 [5:0] $end
   $var wire  6 [ count_14 [5:0] $end
   $var wire  6 Z count_15 [5:0] $end
   $var wire  6 Y count_16 [5:0] $end
   $var wire  6 X count_17 [5:0] $end
   $var wire  6 W count_18 [5:0] $end
   $var wire  6 V count_19 [5:0] $end
   $var wire  6 g count_2 [5:0] $end
   $var wire  6 U count_20 [5:0] $end
   $var wire  6 T count_21 [5:0] $end
   $var wire  6 S count_22 [5:0] $end
   $var wire  6 R count_23 [5:0] $end
   $var wire  6 Q count_24 [5:0] $end
   $var wire  6 P count_25 [5:0] $end
   $var wire  6 O count_26 [5:0] $end
   $var wire  6 N count_27 [5:0] $end
   $var wire  6 M count_28 [5:0] $end
   $var wire  6 L count_29 [5:0] $end
   $var wire  6 f count_3 [5:0] $end
   $var wire  6 K count_30 [5:0] $end
   $var wire  6 J count_31 [5:0] $end
   $var wire  6 e count_4 [5:0] $end
   $var wire  6 d count_5 [5:0] $end
   $var wire  6 c count_6 [5:0] $end
   $var wire  6 b count_7 [5:0] $end
   $var wire  6 a count_8 [5:0] $end
   $var wire  6 ` count_9 [5:0] $end
   $var wire  3 ( ctrl [2:0] $end
   $var wire  1 w ctrl_hi $end
   $var wire  1 x ctrl_hi_1 $end
   $var wire  1 y ctrl_lo $end
   $var wire  4 q io_ALU_op [3:0] $end
   $var wire 32 r io_ALU_out [31:0] $end
   $var wire 16 z io_ALU_out_hi [15:0] $end
   $var wire 24 | io_ALU_out_hi_1 [23:0] $end
   $var wire 16 { io_ALU_out_lo [15:0] $end
   $var wire  8 } io_ALU_out_lo_1 [7:0] $end
   $var wire 32 o io_A_in [31:0] $end
   $var wire 32 p io_B_in [31:0] $end
   $var wire  1 t io_Less $end
   $var wire  1 u io_Overflow_out $end
   $var wire  1 s io_Zero $end
   $var wire  1 n reset $end
   $var wire  1 I tocount_0 $end
   $var wire  1 H tocount_1 $end
   $var wire  1 ? tocount_10 $end
   $var wire  1 > tocount_11 $end
   $var wire  1 = tocount_12 $end
   $var wire  1 < tocount_13 $end
   $var wire  1 ; tocount_14 $end
   $var wire  1 : tocount_15 $end
   $var wire  1 9 tocount_16 $end
   $var wire  1 8 tocount_17 $end
   $var wire  1 7 tocount_18 $end
   $var wire  1 6 tocount_19 $end
   $var wire  1 G tocount_2 $end
   $var wire  1 5 tocount_20 $end
   $var wire  1 4 tocount_21 $end
   $var wire  1 3 tocount_22 $end
   $var wire  1 2 tocount_23 $end
   $var wire  1 1 tocount_24 $end
   $var wire  1 0 tocount_25 $end
   $var wire  1 / tocount_26 $end
   $var wire  1 . tocount_27 $end
   $var wire  1 - tocount_28 $end
   $var wire  1 , tocount_29 $end
   $var wire  1 F tocount_3 $end
   $var wire  1 + tocount_30 $end
   $var wire  1 * tocount_31 $end
   $var wire  1 E tocount_4 $end
   $var wire  1 D tocount_5 $end
   $var wire  1 C tocount_6 $end
   $var wire  1 B tocount_7 $end
   $var wire  1 A tocount_8 $end
   $var wire  1 @ tocount_9 $end
   $scope module adder $end
    $var wire 32 j B_in_not [31:0] $end
    $var wire 32 o io_A_in [31:0] $end
    $var wire 32 p io_B_in [31:0] $end
    $var wire 32 ' io_O_out [31:0] $end
    $var wire  1 $ io_carry $end
    $var wire  1 v io_cin $end
    $var wire  1 & io_negative $end
    $var wire  1 % io_overflow $end
    $var wire  1 # io_zero $end
    $var wire 34 k res [33:0] $end
   $upscope $end
  $upscope $end
 $upscope $end
$enddefinitions $end


#0
1#
0$
0%
0&
b00000000000000000000000000000000 '
b111 (
b00000000000000000000000000000000 )
1*
1+
1,
1-
1.
1/
10
11
12
13
14
15
16
17
18
19
1:
1;
1<
1=
1>
1?
1@
1A
1B
1C
1D
1E
1F
1G
1H
1I
b000001 J
b000010 K
b000011 L
b000100 M
b000101 N
b000110 O
b000111 P
b001000 Q
b001001 R
b001010 S
b001011 T
b001100 U
b001101 V
b001110 W
b001111 X
b010000 Y
b010001 Z
b010010 [
b010011 \
b010100 ]
b010101 ^
b010110 _
b010111 `
b011000 a
b011001 b
b011010 c
b011011 d
b011100 e
b011101 f
b011110 g
b011111 h
b100000 i
b00000000000000000000000000000000 j
b0000000000000000000000000000000000 k
0m
1n
b00000000000000000000000000000000 o
b00000000000000000000000000000000 p
b0000 q
b00000000000000000000000000000000 r
1s
0t
0u
0v
1w
1x
1y
b0000000000000000 z
b0000000000000000 {
b000000000000000000000000 |
b00000000 }
#1
1m
#2
0m
#3
1m
#4
0m
#5
1m
#6
0m
#7
1m
#8
0m
#9
1m
#10
0#
1%
1&
b10000000000000000000000000000000 '
b01111111111111111111111111111111 )
0+
0,
0-
0.
0/
00
01
02
03
04
05
06
07
08
09
0:
0;
0<
0=
0>
0?
0@
0A
0B
0C
0D
0E
0F
0G
0H
0I
b000001 K
b000001 L
b000001 M
b000001 N
b000001 O
b000001 P
b000001 Q
b000001 R
b000001 S
b000001 T
b000001 U
b000001 V
b000001 W
b000001 X
b000001 Y
b000001 Z
b000001 [
b000001 \
b000001 ]
b000001 ^
b000001 _
b000001 `
b000001 a
b000001 b
b000001 c
b000001 d
b000001 e
b000001 f
b000001 g
b000001 h
b000001 i
b00000000000000000000000000000001 j
b0010000000000000000000000000000000 k
0m
0n
b01111111111111111111111111111111 o
b00000000000000000000000000000001 p
b10000000000000000000000000000000 r
0s
b0000000000000001 {
b00000001 }
#11
1m
#12
1$
0%
0&
b01111111111111111111111111111110 '
b10000000000000000000000000000000 )
0*
b000000 J
b000000 K
b000000 L
b000000 M
b000000 N
b000000 O
b000000 P
b000000 Q
b000000 R
b000000 S
b000000 T
b000000 U
b000000 V
b000000 W
b000000 X
b000000 Y
b000000 Z
b000000 [
b000000 \
b000000 ]
b000000 ^
b000000 _
b000000 `
b000000 a
b000000 b
b000000 c
b000000 d
b000000 e
b000000 f
b000000 g
b000000 h
b000000 i
b11111111111111111111111111111110 j
b0101111111111111111111111111111110 k
0m
b0001 q
b01111111111111111111111111111110 r
1v
#13
1m
#14
b00001001000000000000000000000000 '
b000 (
b00001010000000000000000000000000 )
1*
1+
1,
1-
b000001 J
b000010 K
b000011 L
b000100 M
b000100 N
b000100 O
b000100 P
b000100 Q
b000100 R
b000100 S
b000100 T
b000100 U
b000100 V
b000100 W
b000100 X
b000100 Y
b000100 Z
b000100 [
b000100 \
b000100 ]
b000100 ^
b000100 _
b000100 `
b000100 a
b000100 b
b000100 c
b000100 d
b000100 e
b000100 f
b000100 g
b000100 h
b000100 i
b11111111000000000000000000000000 j
b0100001001000000000000000000000000 k
0m
b00001010000000000000000000000000 o
b11111111000000000000000000000000 p
b0010 q
b00000000000000000000000000000100 r
0v
0w
0x
0y
b0000000000000000 {
b00000000 }
#15
1m
#16
b00000000000100010001000100010001 '
b00000000111011101110111011101110 )
1.
1/
10
11
b000101 N
b000110 O
b000111 P
b001000 Q
b001000 R
b001000 S
b001000 T
b001000 U
b001000 V
b001000 W
b001000 X
b001000 Y
b001000 Z
b001000 [
b001000 \
b001000 ]
b001000 ^
b001000 _
b001000 `
b001000 a
b001000 b
b001000 c
b001000 d
b001000 e
b001000 f
b001000 g
b001000 h
b001000 i
b00000000111111111111111111111111 j
b0100000000000100010001000100010001 k
0m
b11111111000100010001000100010001 o
b0011 q
b00000000000000000000000000001000 r
1v
#17
1m
#18
1&
b11111110000100010001000100010001 '
b100 (
b11111111000100010001000100010001 )
0*
0+
0,
0-
0.
0/
00
01
b000000 J
b000000 K
b000000 L
b000000 M
b000000 N
b000000 O
b000000 P
b000000 Q
b000000 R
b000000 S
b000000 T
b000000 U
b000000 V
b000000 W
b000000 X
b000000 Y
b000000 Z
b000000 [
b000000 \
b000000 ]
b000000 ^
b000000 _
b000000 `
b000000 a
b000000 b
b000000 c
b000000 d
b000000 e
b000000 f
b000000 g
b000000 h
b000000 i
b11111111000000000000000000000000 j
b0111111110000100010001000100010001 k
0m
b0100 q
b11111111000000000000000000000000 r
1t
0v
1w
#19
1m
#20
b11110000000100010001000100010001 '
b101 (
b00000000111011101110111011101110 )
1*
1+
1,
1-
1.
1/
10
11
b000001 J
b000010 K
b000011 L
b000100 M
b000101 N
b000110 O
b000111 P
b001000 Q
b001000 R
b001000 S
b001000 T
b001000 U
b001000 V
b001000 W
b001000 X
b001000 Y
b001000 Z
b001000 [
b001000 \
b001000 ]
b001000 ^
b001000 _
b001000 `
b001000 a
b001000 b
b001000 c
b001000 d
b001000 e
b001000 f
b001000 g
b001000 h
b001000 i
b11110000111111111111111111111111 j
b0111110000000100010001000100010001 k
0m
b00001111000000000000000000000000 p
b0101 q
b00000000000000000000000000000001 r
1v
1y
#21
1m
#22
0&
b00001110000100010001000100010001 '
b010 (
b11111111000100010001000100010001 )
0*
0+
0,
0-
0.
0/
00
01
b000000 J
b000000 K
b000000 L
b000000 M
b000000 N
b000000 O
b000000 P
b000000 Q
b000000 R
b000000 S
b000000 T
b000000 U
b000000 V
b000000 W
b000000 X
b000000 Y
b000000 Z
b000000 [
b000000 \
b000000 ]
b000000 ^
b000000 _
b000000 `
b000000 a
b000000 b
b000000 c
b000000 d
b000000 e
b000000 f
b000000 g
b000000 h
b000000 i
b00001111000000000000000000000000 j
b0100001110000100010001000100010001 k
0m
b0110 q
b11111111000100010001000100010001 r
0t
0v
0w
1x
0y
#23
1m
#24
1&
b11110000000100010001000100010001 '
b101 (
b00000000111011101110111011101110 )
1*
1+
1,
1-
1.
1/
10
11
b000001 J
b000010 K
b000011 L
b000100 M
b000101 N
b000110 O
b000111 P
b001000 Q
b001000 R
b001000 S
b001000 T
b001000 U
b001000 V
b001000 W
b001000 X
b001000 Y
b001000 Z
b001000 [
b001000 \
b001000 ]
b001000 ^
b001000 _
b001000 `
b001000 a
b001000 b
b001000 c
b001000 d
b001000 e
b001000 f
b001000 g
b001000 h
b001000 i
b11110000111111111111111111111111 j
b0111110000000100010001000100010001 k
0m
b0111 q
b00000000000000000000000000000000 r
1v
1w
0x
1y
#25
1m
#26
0&
b00001110000100010001000100010001 '
b011 (
b11111111000100010001000100010001 )
0*
0+
0,
0-
0.
0/
00
01
b000000 J
b000000 K
b000000 L
b000000 M
b000000 N
b000000 O
b000000 P
b000000 Q
b000000 R
b000000 S
b000000 T
b000000 U
b000000 V
b000000 W
b000000 X
b000000 Y
b000000 Z
b000000 [
b000000 \
b000000 ]
b000000 ^
b000000 _
b000000 `
b000000 a
b000000 b
b000000 c
b000000 d
b000000 e
b000000 f
b000000 g
b000000 h
b000000 i
b00001111000000000000000000000000 j
b0100001110000100010001000100010001 k
0m
b1000 q
b00000000111011101110111011101110 r
0v
0w
1x
#27
1m
#28
1&
b11110000000100010001000100010001 '
b001 (
b00000000111011101110111011101110 )
1*
1+
1,
1-
1.
1/
10
11
b000001 J
b000010 K
b000011 L
b000100 M
b000101 N
b000110 O
b000111 P
b001000 Q
b001000 R
b001000 S
b001000 T
b001000 U
b001000 V
b001000 W
b001000 X
b001000 Y
b001000 Z
b001000 [
b001000 \
b001000 ]
b001000 ^
b001000 _
b001000 `
b001000 a
b001000 b
b001000 c
b001000 d
b001000 e
b001000 f
b001000 g
b001000 h
b001000 i
b11110000111111111111111111111111 j
b0111110000000100010001000100010001 k
0m
b1001 q
b11110000000100010001000100010001 r
1t
1v
0x
#29
1m
#30
0&
b00010001010001100000000100100000 '
b110 (
b11111111000100010001000100010001 )
0*
0+
0,
0-
0.
0/
00
01
b000000 J
b000000 K
b000000 L
b000000 M
b000000 N
b000000 O
b000000 P
b000000 Q
b000000 R
b000000 S
b000000 T
b000000 U
b000000 V
b000000 W
b000000 X
b000000 Y
b000000 Z
b000000 [
b000000 \
b000000 ]
b000000 ^
b000000 _
b000000 `
b000000 a
b000000 b
b000000 c
b000000 d
b000000 e
b000000 f
b000000 g
b000000 h
b000000 i
b00010010001101001111000000001111 j
b0100010001010001100000000100100000 k
0m
b00010010001101001111000000001111 p
b1010 q
b00000000000000000000000000001111 r
0t
0v
1w
1x
0y
b1111111111111111 z
b1111000000001111 {
b00001111 }
#31
1m
#32
1&
b11101100110111000010000100000010 '
b00000000111011101110111011101110 )
1*
1+
1,
1-
1.
1/
10
11
b000001 J
b000010 K
b000011 L
b000100 M
b000101 N
b000110 O
b000111 P
b001000 Q
b001000 R
b001000 S
b001000 T
b001000 U
b001000 V
b001000 W
b001000 X
b001000 Y
b001000 Z
b001000 [
b001000 \
b001000 ]
b001000 ^
b001000 _
b001000 `
b001000 a
b001000 b
b001000 c
b001000 d
b001000 e
b001000 f
b001000 g
b001000 h
b001000 i
b11101101110010110000111111110000 j
b0111101100110111000010000100000010 k
0m
b1011 q
b11111111111111111111000000001111 r
1t
1v
#33
1m
#34
0$
1%
b10000010001101001111000000001111 '
b111 (
b01110000000000000000000000000000 )
0+
0,
0-
0.
0/
00
01
b000001 K
b000001 L
b000001 M
b000001 N
b000001 O
b000001 P
b000001 Q
b000001 R
b000001 S
b000001 T
b000001 U
b000001 V
b000001 W
b000001 X
b000001 Y
b000001 Z
b000001 [
b000001 \
b000001 ]
b000001 ^
b000001 _
b000001 `
b000001 a
b000001 b
b000001 c
b000001 d
b000001 e
b000001 f
b000001 g
b000001 h
b000001 i
b00010010001101001111000000001111 j
b0010000010001101001111000000001111 k
0m
b01110000000000000000000000000000 o
b1110 q
b10000010001101001111000000001111 r
0t
1u
0v
1y
#35
1m
#36
1$
0%
0&
b01011101110010110000111111110001 '
b10001111111111111111111111111111 )
0*
b000000 J
b000000 K
b000000 L
b000000 M
b000000 N
b000000 O
b000000 P
b000000 Q
b000000 R
b000000 S
b000000 T
b000000 U
b000000 V
b000000 W
b000000 X
b000000 Y
b000000 Z
b000000 [
b000000 \
b000000 ]
b000000 ^
b000000 _
b000000 `
b000000 a
b000000 b
b000000 c
b000000 d
b000000 e
b000000 f
b000000 g
b000000 h
b000000 i
b11101101110010110000111111110000 j
b0101011101110010110000111111110001 k
0m
b1111 q
b01011101110010110000111111110001 r
0u
1v
