generated/ALU/ALU.ALUGen1104683267/ALU.vcd
$version Generated by VerilatedVcd $end
$date Tue Oct  5 01:02:36 2021 $end
$timescale 1ps $end

 $scope module TOP $end
  $var wire  1 m clock $end
  $var wire  4 q io_ALU_op [3:0] $end
  $var wire 32 r io_ALU_out [31:0] $end
  $var wire 32 o io_A_in [31:0] $end
  $var wire 32 p io_B_in [31:0] $end
  $var wire  1 t io_Less $end
  $var wire  1 u io_Overflow_out $end
  $var wire  1 s io_Zero $end
  $var wire  1 n reset $end
  $scope module ALU $end
   $var wire 32 ) A_in_not [31:0] $end
   $var wire 32 o adder_io_A_in [31:0] $end
   $var wire 32 p adder_io_B_in [31:0] $end
   $var wire 32 ' adder_io_O_out [31:0] $end
   $var wire  1 $ adder_io_carry $end
   $var wire  1 v adder_io_cin $end
   $var wire  1 & adder_io_negative $end
   $var wire  1 % adder_io_overflow $end
   $var wire  1 # adder_io_zero $end
   $var wire  1 m clock $end
   $var wire  5 i count_0 [4:0] $end
   $var wire  5 h count_1 [4:0] $end
   $var wire  5 _ count_10 [4:0] $end
   $var wire  5 ^ count_11 [4:0] $end
   $var wire  5 ] count_12 [4:0] $end
   $var wire  5 \ count_13 [4:0] $end
   $var wire  5 [ count_14 [4:0] $end
   $var wire  5 Z count_15 [4:0] $end
   $var wire  5 Y count_16 [4:0] $end
   $var wire  5 X count_17 [4:0] $end
   $var wire  5 W count_18 [4:0] $end
   $var wire  5 V count_19 [4:0] $end
   $var wire  5 g count_2 [4:0] $end
   $var wire  5 U count_20 [4:0] $end
   $var wire  5 T count_21 [4:0] $end
   $var wire  5 S count_22 [4:0] $end
   $var wire  5 R count_23 [4:0] $end
   $var wire  5 Q count_24 [4:0] $end
   $var wire  5 P count_25 [4:0] $end
   $var wire  5 O count_26 [4:0] $end
   $var wire  5 N count_27 [4:0] $end
   $var wire  5 M count_28 [4:0] $end
   $var wire  5 L count_29 [4:0] $end
   $var wire  5 f count_3 [4:0] $end
   $var wire  5 K count_30 [4:0] $end
   $var wire  5 J count_31 [4:0] $end
   $var wire  5 e count_4 [4:0] $end
   $var wire  5 d count_5 [4:0] $end
   $var wire  5 c count_6 [4:0] $end
   $var wire  5 b count_7 [4:0] $end
   $var wire  5 a count_8 [4:0] $end
   $var wire  5 ` count_9 [4:0] $end
   $var wire  3 ( ctrl [2:0] $end
   $var wire  1 w ctrl_hi $end
   $var wire  1 x ctrl_hi_1 $end
   $var wire  1 y ctrl_lo $end
   $var wire  4 q io_ALU_op [3:0] $end
   $var wire 32 r io_ALU_out [31:0] $end
   $var wire 16 z io_ALU_out_hi [15:0] $end
   $var wire 24 | io_ALU_out_hi_1 [23:0] $end
   $var wire 16 { io_ALU_out_lo [15:0] $end
   $var wire  8 } io_ALU_out_lo_1 [7:0] $end
   $var wire 32 o io_A_in [31:0] $end
   $var wire 32 p io_B_in [31:0] $end
   $var wire  1 t io_Less $end
   $var wire  1 u io_Overflow_out $end
   $var wire  1 s io_Zero $end
   $var wire  1 n reset $end
   $var wire  1 I tocount_0 $end
   $var wire  1 H tocount_1 $end
   $var wire  1 ? tocount_10 $end
   $var wire  1 > tocount_11 $end
   $var wire  1 = tocount_12 $end
   $var wire  1 < tocount_13 $end
   $var wire  1 ; tocount_14 $end
   $var wire  1 : tocount_15 $end
   $var wire  1 9 tocount_16 $end
   $var wire  1 8 tocount_17 $end
   $var wire  1 7 tocount_18 $end
   $var wire  1 6 tocount_19 $end
   $var wire  1 G tocount_2 $end
   $var wire  1 5 tocount_20 $end
   $var wire  1 4 tocount_21 $end
   $var wire  1 3 tocount_22 $end
   $var wire  1 2 tocount_23 $end
   $var wire  1 1 tocount_24 $end
   $var wire  1 0 tocount_25 $end
   $var wire  1 / tocount_26 $end
   $var wire  1 . tocount_27 $end
   $var wire  1 - tocount_28 $end
   $var wire  1 , tocount_29 $end
   $var wire  1 F tocount_3 $end
   $var wire  1 + tocount_30 $end
   $var wire  1 * tocount_31 $end
   $var wire  1 E tocount_4 $end
   $var wire  1 D tocount_5 $end
   $var wire  1 C tocount_6 $end
   $var wire  1 B tocount_7 $end
   $var wire  1 A tocount_8 $end
   $var wire  1 @ tocount_9 $end
   $scope module adder $end
    $var wire 32 j B_in_not [31:0] $end
    $var wire 32 o io_A_in [31:0] $end
    $var wire 32 p io_B_in [31:0] $end
    $var wire 32 ' io_O_out [31:0] $end
    $var wire  1 $ io_carry $end
    $var wire  1 v io_cin $end
    $var wire  1 & io_negative $end
    $var wire  1 % io_overflow $end
    $var wire  1 # io_zero $end
    $var wire 34 k res [33:0] $end
   $upscope $end
  $upscope $end
 $upscope $end
$enddefinitions $end


#0
1#
0$
0%
0&
b00000000000000000000000000000000 '
b111 (
b00000000000000000000000000000000 )
1*
1+
1,
1-
1.
1/
10
11
12
13
14
15
16
17
18
19
1:
1;
1<
1=
1>
1?
1@
1A
1B
1C
1D
1E
1F
1G
1H
1I
b00001 J
b00010 K
b00011 L
b00100 M
b00101 N
b00110 O
b00111 P
b01000 Q
b01001 R
b01010 S
b01011 T
b01100 U
b01101 V
b01110 W
b01111 X
b10000 Y
b10001 Z
b10010 [
b10011 \
b10100 ]
b10101 ^
b10110 _
b10111 `
b11000 a
b11001 b
b11010 c
b11011 d
b11100 e
b11101 f
b11110 g
b11111 h
b00000 i
b00000000000000000000000000000000 j
b0000000000000000000000000000000000 k
0m
1n
b00000000000000000000000000000000 o
b00000000000000000000000000000000 p
b0000 q
b00000000000000000000000000000000 r
1s
0t
0u
0v
1w
1x
1y
b0000000000000000 z
b0000000000000000 {
b000000000000000000000000 |
b00000000 }
#1
1m
#2
0m
#3
1m
#4
0m
#5
1m
#6
0m
#7
1m
#8
0m
#9
1m
#10
0#
1%
1&
b10000000000000000000000000000000 '
b01111111111111111111111111111111 )
0+
0,
0-
0.
0/
00
01
02
03
04
05
06
07
08
09
0:
0;
0<
0=
0>
0?
0@
0A
0B
0C
0D
0E
0F
0G
0H
0I
b00001 K
b00001 L
b00001 M
b00001 N
b00001 O
b00001 P
b00001 Q
b00001 R
b00001 S
b00001 T
b00001 U
b00001 V
b00001 W
b00001 X
b00001 Y
b00001 Z
b00001 [
b00001 \
b00001 ]
b00001 ^
b00001 _
b00001 `
b00001 a
b00001 b
b00001 c
b00001 d
b00001 e
b00001 f
b00001 g
b00001 h
b00001 i
b00000000000000000000000000000001 j
b0010000000000000000000000000000000 k
0m
0n
b01111111111111111111111111111111 o
b00000000000000000000000000000001 p
b10000000000000000000000000000000 r
0s
b0000000000000001 {
b00000001 }
#11
1m
#12
1$
0%
0&
b01111111111111111111111111111110 '
b10000000000000000000000000000000 )
0*
b00000 J
b00000 K
b00000 L
b00000 M
b00000 N
b00000 O
b00000 P
b00000 Q
b00000 R
b00000 S
b00000 T
b00000 U
b00000 V
b00000 W
b00000 X
b00000 Y
b00000 Z
b00000 [
b00000 \
b00000 ]
b00000 ^
b00000 _
b00000 `
b00000 a
b00000 b
b00000 c
b00000 d
b00000 e
b00000 f
b00000 g
b00000 h
b00000 i
b11111111111111111111111111111110 j
b0101111111111111111111111111111110 k
0m
b0001 q
b01111111111111111111111111111110 r
1v
#13
1m
#14
b00001001000000000000000000000000 '
b000 (
b00001010000000000000000000000000 )
1*
1+
1,
1-
b00001 J
b00010 K
b00011 L
b00100 M
b00100 N
b00100 O
b00100 P
b00100 Q
b00100 R
b00100 S
b00100 T
b00100 U
b00100 V
b00100 W
b00100 X
b00100 Y
b00100 Z
b00100 [
b00100 \
b00100 ]
b00100 ^
b00100 _
b00100 `
b00100 a
b00100 b
b00100 c
b00100 d
b00100 e
b00100 f
b00100 g
b00100 h
b00100 i
b11111111000000000000000000000000 j
b0100001001000000000000000000000000 k
0m
b00001010000000000000000000000000 o
b11111111000000000000000000000000 p
b0010 q
b00000000000000000000000000000100 r
0v
0w
0x
0y
b0000000000000000 {
b00000000 }
#15
1m
#16
b00000000000100010001000100010001 '
b00000000111011101110111011101110 )
1.
1/
10
11
b00101 N
b00110 O
b00111 P
b01000 Q
b01000 R
b01000 S
b01000 T
b01000 U
b01000 V
b01000 W
b01000 X
b01000 Y
b01000 Z
b01000 [
b01000 \
b01000 ]
b01000 ^
b01000 _
b01000 `
b01000 a
b01000 b
b01000 c
b01000 d
b01000 e
b01000 f
b01000 g
b01000 h
b01000 i
b00000000111111111111111111111111 j
b0100000000000100010001000100010001 k
0m
b11111111000100010001000100010001 o
b0011 q
b00000000000000000000000000001000 r
1v
#17
1m
#18
1&
b11111110000100010001000100010001 '
b100 (
b11111111000100010001000100010001 )
0*
0+
0,
0-
0.
0/
00
01
b00000 J
b00000 K
b00000 L
b00000 M
b00000 N
b00000 O
b00000 P
b00000 Q
b00000 R
b00000 S
b00000 T
b00000 U
b00000 V
b00000 W
b00000 X
b00000 Y
b00000 Z
b00000 [
b00000 \
b00000 ]
b00000 ^
b00000 _
b00000 `
b00000 a
b00000 b
b00000 c
b00000 d
b00000 e
b00000 f
b00000 g
b00000 h
b00000 i
b11111111000000000000000000000000 j
b0111111110000100010001000100010001 k
0m
b0100 q
b11111111000000000000000000000000 r
1t
0v
1w
#19
1m
#20
b11110000000100010001000100010001 '
b101 (
b00000000111011101110111011101110 )
1*
1+
1,
1-
1.
1/
10
11
b00001 J
b00010 K
b00011 L
b00100 M
b00101 N
b00110 O
b00111 P
b01000 Q
b01000 R
b01000 S
b01000 T
b01000 U
b01000 V
b01000 W
b01000 X
b01000 Y
b01000 Z
b01000 [
b01000 \
b01000 ]
b01000 ^
b01000 _
b01000 `
b01000 a
b01000 b
b01000 c
b01000 d
b01000 e
b01000 f
b01000 g
b01000 h
b01000 i
b11110000111111111111111111111111 j
b0111110000000100010001000100010001 k
0m
b00001111000000000000000000000000 p
b0101 q
b00000000000000000000000000000001 r
1v
1y
#21
1m
#22
0&
b00001110000100010001000100010001 '
b010 (
b11111111000100010001000100010001 )
0*
0+
0,
0-
0.
0/
00
01
b00000 J
b00000 K
b00000 L
b00000 M
b00000 N
b00000 O
b00000 P
b00000 Q
b00000 R
b00000 S
b00000 T
b00000 U
b00000 V
b00000 W
b00000 X
b00000 Y
b00000 Z
b00000 [
b00000 \
b00000 ]
b00000 ^
b00000 _
b00000 `
b00000 a
b00000 b
b00000 c
b00000 d
b00000 e
b00000 f
b00000 g
b00000 h
b00000 i
b00001111000000000000000000000000 j
b0100001110000100010001000100010001 k
0m
b0110 q
b11111111000100010001000100010001 r
0t
0v
0w
1x
0y
#23
1m
#24
1&
b11110000000100010001000100010001 '
b101 (
b00000000111011101110111011101110 )
1*
1+
1,
1-
1.
1/
10
11
b00001 J
b00010 K
b00011 L
b00100 M
b00101 N
b00110 O
b00111 P
b01000 Q
b01000 R
b01000 S
b01000 T
b01000 U
b01000 V
b01000 W
b01000 X
b01000 Y
b01000 Z
b01000 [
b01000 \
b01000 ]
b01000 ^
b01000 _
b01000 `
b01000 a
b01000 b
b01000 c
b01000 d
b01000 e
b01000 f
b01000 g
b01000 h
b01000 i
b11110000111111111111111111111111 j
b0111110000000100010001000100010001 k
0m
b0111 q
b00000000000000000000000000000000 r
1v
1w
0x
1y
#25
1m
#26
0&
b00001110000100010001000100010001 '
b011 (
b11111111000100010001000100010001 )
0*
0+
0,
0-
0.
0/
00
01
b00000 J
b00000 K
b00000 L
b00000 M
b00000 N
b00000 O
b00000 P
b00000 Q
b00000 R
b00000 S
b00000 T
b00000 U
b00000 V
b00000 W
b00000 X
b00000 Y
b00000 Z
b00000 [
b00000 \
b00000 ]
b00000 ^
b00000 _
b00000 `
b00000 a
b00000 b
b00000 c
b00000 d
b00000 e
b00000 f
b00000 g
b00000 h
b00000 i
b00001111000000000000000000000000 j
b0100001110000100010001000100010001 k
0m
b1000 q
b00000000111011101110111011101110 r
0v
0w
1x
#27
1m
#28
1&
b11110000000100010001000100010001 '
b001 (
b00000000111011101110111011101110 )
1*
1+
1,
1-
1.
1/
10
11
b00001 J
b00010 K
b00011 L
b00100 M
b00101 N
b00110 O
b00111 P
b01000 Q
b01000 R
b01000 S
b01000 T
b01000 U
b01000 V
b01000 W
b01000 X
b01000 Y
b01000 Z
b01000 [
b01000 \
b01000 ]
b01000 ^
b01000 _
b01000 `
b01000 a
b01000 b
b01000 c
b01000 d
b01000 e
b01000 f
b01000 g
b01000 h
b01000 i
b11110000111111111111111111111111 j
b0111110000000100010001000100010001 k
0m
b1001 q
b11110000000100010001000100010001 r
1t
1v
0x
#29
1m
#30
0&
b00010001010001100000000100100000 '
b110 (
b11111111000100010001000100010001 )
0*
0+
0,
0-
0.
0/
00
01
b00000 J
b00000 K
b00000 L
b00000 M
b00000 N
b00000 O
b00000 P
b00000 Q
b00000 R
b00000 S
b00000 T
b00000 U
b00000 V
b00000 W
b00000 X
b00000 Y
b00000 Z
b00000 [
b00000 \
b00000 ]
b00000 ^
b00000 _
b00000 `
b00000 a
b00000 b
b00000 c
b00000 d
b00000 e
b00000 f
b00000 g
b00000 h
b00000 i
b00010010001101001111000000001111 j
b0100010001010001100000000100100000 k
0m
b00010010001101001111000000001111 p
b1010 q
b00000000000000000000000000001111 r
0t
0v
1w
1x
0y
b1111111111111111 z
b1111000000001111 {
b00001111 }
#31
1m
#32
1&
b11101100110111000010000100000010 '
b00000000111011101110111011101110 )
1*
1+
1,
1-
1.
1/
10
11
b00001 J
b00010 K
b00011 L
b00100 M
b00101 N
b00110 O
b00111 P
b01000 Q
b01000 R
b01000 S
b01000 T
b01000 U
b01000 V
b01000 W
b01000 X
b01000 Y
b01000 Z
b01000 [
b01000 \
b01000 ]
b01000 ^
b01000 _
b01000 `
b01000 a
b01000 b
b01000 c
b01000 d
b01000 e
b01000 f
b01000 g
b01000 h
b01000 i
b11101101110010110000111111110000 j
b0111101100110111000010000100000010 k
0m
b1011 q
b11111111111111111111000000001111 r
1t
1v
#33
1m
#34
0$
1%
b10000010001101001111000000001111 '
b111 (
b01110000000000000000000000000000 )
0+
0,
0-
0.
0/
00
01
b00001 K
b00001 L
b00001 M
b00001 N
b00001 O
b00001 P
b00001 Q
b00001 R
b00001 S
b00001 T
b00001 U
b00001 V
b00001 W
b00001 X
b00001 Y
b00001 Z
b00001 [
b00001 \
b00001 ]
b00001 ^
b00001 _
b00001 `
b00001 a
b00001 b
b00001 c
b00001 d
b00001 e
b00001 f
b00001 g
b00001 h
b00001 i
b00010010001101001111000000001111 j
b0010000010001101001111000000001111 k
0m
b01110000000000000000000000000000 o
b1110 q
b10000010001101001111000000001111 r
0t
1u
0v
1y
#35
1m
#36
1$
0%
0&
b01011101110010110000111111110001 '
b10001111111111111111111111111111 )
0*
b00000 J
b00000 K
b00000 L
b00000 M
b00000 N
b00000 O
b00000 P
b00000 Q
b00000 R
b00000 S
b00000 T
b00000 U
b00000 V
b00000 W
b00000 X
b00000 Y
b00000 Z
b00000 [
b00000 \
b00000 ]
b00000 ^
b00000 _
b00000 `
b00000 a
b00000 b
b00000 c
b00000 d
b00000 e
b00000 f
b00000 g
b00000 h
b00000 i
b11101101110010110000111111110000 j
b0101011101110010110000111111110001 k
0m
b1111 q
b01011101110010110000111111110001 r
0u
1v
